hxyap - Takehome 2
…
#tm_shape(adm1_filtered) + tm_polygons() + tm_shape(ports) + tm_dots(size = 0.1)

1.0 Analyzing the impact of the Drug Offenses Act

We will be looking into 2022 as it is the year after the 2021 drug offenses act was passed.

drugoff_list[[6]]

Simple feature collection with 77 features and 15 fields
Geometry type: MULTIPOLYGON
Dimension:     XY
Bounding box:  xmin: 97.34336 ymin: 5.613038 xmax: 105.637 ymax: 20.46507
Geodetic CRS:  WGS 84
# A tibble: 77 × 16
   fiscal_year types_of_drug_offenses no_cases province_en Shape_Leng Shape_Area
         <dbl> <chr>                     <dbl> <chr>            <dbl>      <dbl>
 1        2022 drug_use_cases              168 Krabi             8.21      0.409
 2        2022 drug_use_cases             2755 Bangkok           2.42      0.131
 3        2022 drug_use_cases             1476 Kanchanabu…       8.23      1.63 
 4        2022 drug_use_cases             3753 Kalasin           6.05      0.583
 5        2022 drug_use_cases              623 Kamphaeng …       5.19      0.724
 6        2022 drug_use_cases             3968 Khon Kaen         8.99      0.898
 7        2022 drug_use_cases             1207 Chanthaburi       5.13      0.533
 8        2022 drug_use_cases             1502 Chachoengs…       4.94      0.431
 9        2022 drug_use_cases             2930 Chon Buri         6.09      0.376
10        2022 drug_use_cases              617 Chai Nat          2.90      0.209
# ℹ 67 more rows
# ℹ 10 more variables: ADM1_PCODE <chr>, ADM1_REF <chr>, ADM1ALT1EN <chr>,
#   ADM1ALT2EN <chr>, ADM0_EN <chr>, ADM0_PCODE <chr>, date <date>,
#   validOn <date>, validTo <date>, geometry <MULTIPOLYGON [°]>
…
HotColdSpotAnalysis_DUC22 <- wm_idw_DUC22 %>% 
  mutate(local_Gi = local_gstar_perm(
    no_cases, nb, wt, nsim = 99),
         .before = 1) %>%
  unnest(local_Gi)
HotColdSpotAnalysis_DUC22

Simple feature collection with 77 features and 27 fields
Geometry type: MULTIPOLYGON
Dimension:     XY
Bounding box:  xmin: 97.34336 ymin: 5.613038 xmax: 105.637 ymax: 20.46507
Geodetic CRS:  WGS 84
# A tibble: 77 × 28
   gi_star cluster   e_gi     var_gi std_dev p_value p_sim p_folded_sim skewness
     <dbl> <fct>    <dbl>      <dbl>   <dbl>   <dbl> <dbl>        <dbl>    <dbl>
 1  0.0920 Low     0.0101 0.00000896  1.08   0.279    0.36         0.18   0.207 
 2 -0.308  High    0.0143 0.0000108  -0.692  0.489    0.58         0.29   0.0198
 3 -0.758  Low     0.0130 0.0000110  -0.797  0.425    0.46         0.23   0.448 
 4  3.42   High    0.0153 0.0000113   2.60   0.00941  0.04         0.02   0.528 
 5 -2.38   Low     0.0119 0.00000968 -2.35   0.0187   0.04         0.02   0.0345
 6  2.80   High    0.0146 0.00000735  2.13   0.0331   0.04         0.02   0.271 
 7 -0.113  Low     0.0128 0.0000118  -0.0585 0.953    0.98         0.49   0.823 
 8  0.0844 Low     0.0133 0.00000990 -0.0120 0.990    1            0.5    0.533 
 9  0.679  High    0.0154 0.0000144   0.155  0.877    0.84         0.42   0.464 
10 -1.77   Low     0.0120 0.0000132  -1.62   0.105    0.08         0.04   0.449 
# ℹ 67 more rows
# ℹ 19 more variables: kurtosis <dbl>, wts <list>, fiscal_year <dbl>,
#   types_of_drug_offenses <chr>, no_cases <dbl>, province_en <chr>,
#   Shape_Leng <dbl>, Shape_Area <dbl>, ADM1_PCODE <chr>, ADM1_REF <chr>,
#   ADM1ALT1EN <chr>, ADM1ALT2EN <chr>, ADM0_EN <chr>, ADM0_PCODE <chr>,
#   date <date>, validOn <date>, validTo <date>, geometry <MULTIPOLYGON [°]>,
#   nb <nb>
…
